{
  "dependencies": {
    "express": "registry:npm/express#4.14.0+20160925001530",
    "lodash": "registry:npm/lodash#4.0.0+20161015015725",
    "react": "registry:npm/react#15.0.1+20170104200836",
    "react-dom": "registry:npm/react-dom#15.0.1+20160826174104",
    "webpack": "registry:npm/webpack#1.12.9+20160418172948"
  },
  "globalDependencies": {}
}
